global num points = 80
MPI run size = 16
Error data:
	U norm2 error: 0.000236542
	RHO norm2 error: 0.000319645
Timing data:
	Total run time: 0.0110841 seconds
	Total iterations: 160
	Ping-pongs per iteration: 4
	Time per ping-pong: 0.00277102 seconds
		(assuming ping-pongs are only time spent).
--- SharcNET Job Epilogue ---
              job id: 4631360
         exit status: 0
            cpu time: 0 / 1920s (0 %)
        elapsed time: 29s / 120s (24 %)
      virtual memory: 13.3M / 7.8G (0 %)

Job completed successfully
WARNING: Job only used 24% of its requested walltime.
WARNING: Job only used 0% of its requested cpu time.
WARNING: Job only used 0% of its requested memory.
