global num points = 10
MPI run size = 2
Error data:
	U norm2 error: 0.262843
	RHO norm2 error: 0.525818
Timing data:
	Total run time: 0.00215387 seconds
	Total iterations: 160
	Ping-pongs per iteration: 4
	Time per ping-pong: 0.000538468 seconds
		(assuming ping-pongs are only time spent).
--- SharcNET Job Epilogue ---
              job id: 4631397
         exit status: 0
            cpu time: 0 / 240s (0 %)
        elapsed time: 2s / 120s (1 %)
      virtual memory: 672.2M / 1.0G (67 %)

Job completed successfully
WARNING: Job only used 1% of its requested walltime.
WARNING: Job only used 0% of its requested cpu time.
WARNING: Job only used 67% of its requested memory.
