global num points = 1280
MPI run size = 256
Error data:
	U norm2 error: 1.96495e-09
	RHO norm2 error: 4.86207e-08
Timing data:
	Total run time: 0.0185881 seconds
	Total iterations: 160
	Ping-pongs per iteration: 4
	Time per ping-pong: 0.00464702 seconds
		(assuming ping-pongs are only time spent).
--- SharcNET Job Epilogue ---
              job id: 4637258
         exit status: 0
            cpu time: 153s / 21.3h (0 %)
        elapsed time: 65s / 300s (21 %)
      virtual memory: 1.1G / 125.0G (0 %)

Job completed successfully
WARNING: Job only used 21% of its requested walltime.
WARNING: Job only used 0% of its requested cpu time.
WARNING: Job only used 0% of its requested memory.
