global num points = 80
MPI run size = 16
Error data:
	U norm2 error: 0.000236542
	RHO norm2 error: 0.000319645
Timing data:
	Total run time: 0.0125179 seconds
	Total iterations: 160
	Ping-pongs per iteration: 4
	Time per ping-pong: 0.00312948 seconds
		(assuming ping-pongs are only time spent).
--- SharcNET Job Epilogue ---
              job id: 4631352
         exit status: 0
            cpu time: 0 / 1920s (0 %)
        elapsed time: 36s / 120s (30 %)
      virtual memory: 303.5M / 7.8G (3 %)

Job completed successfully
WARNING: Job only used 30% of its requested walltime.
WARNING: Job only used 0% of its requested cpu time.
WARNING: Job only used 3% of its requested memory.
