global num points = 40
MPI run size = 8
Error data:
	U norm2 error: 0.00238693
	RHO norm2 error: 0.00425317
Timing data:
	Total run time: 0.0114398 seconds
	Total iterations: 160
	Ping-pongs per iteration: 4
	Time per ping-pong: 0.00285995 seconds
		(assuming ping-pongs are only time spent).
--- SharcNET Job Epilogue ---
              job id: 4631391
         exit status: 0
            cpu time: 0 / 960s (0 %)
        elapsed time: 4s / 120s (3 %)
      virtual memory: 13.3M / 3.9G (0 %)

Job completed successfully
WARNING: Job only used 3% of its requested walltime.
WARNING: Job only used 0% of its requested cpu time.
WARNING: Job only used 0% of its requested memory.
