****************************************************************************
* Hwloc has encountered what looks like an error from the operating system.
*
* object intersection without inclusion!
* Error occurred in topology.c line 594
*
* Please report this error message to the hwloc user's mailing list,
* along with the output from the hwloc-gather-topology.sh script.
****************************************************************************
global num points = 1280
MPI run size = 256
Error data:
	U norm2 error: 1.96495e-09
	RHO norm2 error: 4.86207e-08
Timing data:
	Total run time: 0.0191529 seconds
	Total iterations: 160
	Ping-pongs per iteration: 4
	Time per ping-pong: 0.00478822 seconds
		(assuming ping-pongs are only time spent).
--- SharcNET Job Epilogue ---
              job id: 4631348
         exit status: 0
            cpu time: 91s / 8.5h (0 %)
        elapsed time: 56s / 120s (46 %)
      virtual memory: 745.7M / 125.0G (0 %)

Job completed successfully
WARNING: Job only used 46% of its requested walltime.
WARNING: Job only used 0% of its requested cpu time.
WARNING: Job only used 0% of its requested memory.
