global num points = 160
MPI run size = 32
Error data:
	U norm2 error: 1.84611e-05
	RHO norm2 error: 5.03337e-05
Timing data:
	Total run time: 0.019629 seconds
	Total iterations: 160
	Ping-pongs per iteration: 4
	Time per ping-pong: 0.00490725 seconds
		(assuming ping-pongs are only time spent).
--- SharcNET Job Epilogue ---
              job id: 4631393
         exit status: 0
            cpu time: 0 / 1.1h (0 %)
        elapsed time: 5s / 120s (4 %)
      virtual memory: 565.8M / 15.6G (3 %)

Job completed successfully
WARNING: Job only used 4% of its requested walltime.
WARNING: Job only used 0% of its requested cpu time.
WARNING: Job only used 3% of its requested memory.
